Layer name, IFMAP Height, IFMAP Width, Filter Height, Filter Width, Channels, Num Filter, Strides,
Conv1,227,227,7,7,3,96,2,
Fire2_sq1,55,55,1,1,96,16,1,
Fire2_ex1,55,55,1,1,16,64,1,
Fire2_ex3,55,55,3,3,16,64,1,
Fire3_sq1,55,55,1,1,128,16,1,
Fire3_ex1,55,55,1,1,16,64,1,
Fire3_ex3,55,55,3,3,16,64,1,
Fire4_sq1,55,55,1,1,128,32,1,
Fire4_ex1,55,55,1,1,32,128,1,
Fire4_ex3,55,55,3,3,32,128,1,
Fire5_sq1,27,27,1,1,256,32,1,
Fire5_ex1,27,27,1,1,32,128,1,
Fire5_ex3,27,27,3,3,32,128,1,
Fire6_sq1,27,27,1,1,256,48,1,
Fire6_ex1,27,27,1,1,48,192,1,
Fire6_ex3,27,27,3,3,48,192,1,
Fire7_sq1,27,27,1,1,384,48,1,
Fire7_ex1,27,27,1,1,48,192,1,
Fire7_ex3,27,27,3,3,48,192,1,
Fire8_sq1,27,27,1,1,384,64,1,
Fire8_ex1,27,27,1,1,64,256,1,
Fire8_ex3,27,27,3,3,64,256,1,
Fire9_sq1,13,13,1,1,512,64,1,
Fire9_ex1,13,13,1,1,64,256,1,
Fire9_ex3,13,13,3,3,64,256,1,
Conv10,13,13,1,1,512,1000,1,
